{
  "preference": null,
  "pagination": {
    "total": 2014,
    "limit": 3,
    "offset": 3,
    "total_pages": 672,
    "current_page": 2
  },
  "data": [
    {
      "_score": 90.209465,
      "is_public_domain": false,
      "date_start": 1956,
      "artist_title": "Maurits Cornelis Escher",
      "id": 118140,
      "image_id": "eeb87965-937f-14e9-70f2-c60648ef4ca1",
      "title": "Print Gallery"
    },
    {
      "_score": 89.6286,
      "is_public_domain": false,
      "date_start": 1910,
      "artist_title": "Elizabeth Buehrmann",
      "id": 123684,
      "image_id": "cf445fc6-4345-92b5-365d-53341260df7c",
      "title": "Albert Roullier in His Galleries in Chicago"
    },
    {
      "_score": 89.51072,
      "is_public_domain": false,
      "date_start": 1965,
      "artist_title": "Robert Rauschenberg",
      "id": 93879,
      "image_id": "5e1a705a-912a-f0e7-395b-cf287a2b2457",
      "title": "Dwan Gallery Poster"
    }
  ],
  "info": {
    "license_text": "The `description` field in this response is licensed under a Creative Commons Attribution 4.0 Generic License (CC-By) and the Terms and Conditions of artic.edu. All other data in this response is licensed under a Creative Commons Zero (CC0) 1.0 designation and the Terms and Conditions of artic.edu.",
    "license_links": [
      "https:\/\/creativecommons.org\/publicdomain\/zero\/1.0\/",
      "https:\/\/www.artic.edu\/terms"
    ],
    "version": "1.10"
  },
  "config": {
    "iiif_url": "https:\/\/www.artic.edu\/iiif\/2",
    "website_url": "http:\/\/www.artic.edu"
  }
}
